[gd_scene load_steps=2 format=3 uid="uid://cxkfwf4hl6uex"]

[ext_resource type="PackedScene" uid="uid://ch4rdc7lopsw0" path="res://window.tscn" id="1_goa6g"]

[node name="geopolitics" type="Control"]
layout_mode = 3
anchors_preset = 0

[node name="window" parent="." instance=ExtResource("1_goa6g")]
offset_left = 324.0
offset_top = 153.0
offset_right = 1624.0
offset_bottom = 953.0
