[gd_resource type="StyleBoxTexture" load_steps=2 format=3 uid="uid://cp0uvhgx8hhnv"]

[ext_resource type="Texture2D" uid="uid://cwm2xui4ot0bi" path="res://assets/sprites/magic-btn.png" id="1_y5fke"]

[resource]
texture = ExtResource("1_y5fke")
